Machine Learning in R with Tidymodels
…
##  Column specification 
## Delimiter: ","
## chr (1): TREAT
## dbl (2): IV, SUTW

## 
##  Use `spec()` to retrieve the full column specification for this data.
##  Specify the column types or set `show_col_types = FALSE` to quiet this message.

# # Take a look at the data
# View(urchins)
urchins

## # A tibble: 72 x 3
##    food_regime initial_volume width
##    <fct>                <dbl> <dbl>
##  1 Initial                3.5 0.01 
##  2 Initial                5   0.02 
##  3 Initial                8   0.061
##  4 Initial               10   0.051
##  5 Initial               13   0.041
##  6 Initial               13   0.061
##  7 Initial               15   0.041
##  8 Initial               15   0.071
##  9 Initial               16   0.092
## 10 Initial               17   0.051
## #  with 62 more rows
…
Create Features

Now we can start adding steps onto our recipe using the pipe operator. Perhaps it is reasonable for the date of the flight to have an effect on the likelihood of a late arrival. A little bit of feature engineering might go a long way to improving our model. How should the date be encoded into the model? The date column has an R date object so including that column as is will mean that the model will convert it to a numeric format equal to the number of days after a reference date:

flight_data %>% 
  distinct(date) %>% 
  mutate(numeric_date = as.numeric(date)) 

## # A tibble: 364 x 2
##    date       numeric_date
##    <date>            <dbl>
##  1 2013-01-01        15706
##  2 2013-01-02        15707
##  3 2013-01-03        15708
##  4 2013-01-04        15709
##  5 2013-01-05        15710
##  6 2013-01-06        15711
##  7 2013-01-07        15712
##  8 2013-01-08        15713
##  9 2013-01-09        15714
## 10 2013-01-10        15715
## #  with 354 more rows
…
flights_fit <- 
  flights_wflow %>% 
  fit(data = train_data)

This object has the finalized recipe and fitted model objects inside. You may want to extract the model or recipe objects from the workflow. To do this, you can use the helper functions pull_workflow_fit() and pull_workflow_prepped_recipe(). For example, here we pull the fitted model object then use the broom::tidy() function to get a tidy tibble of model coefficients:

flights_fit %>% 
  pull_workflow_fit() %>% 
  tidy()

## Warning: `pull_workflow_fit()` was deprecated in workflows 0.2.3.
## Please use `extract_fit_parsnip()` instead.

## # A tibble: 158 x 5
##    term                         estimate std.error statistic  p.value
##    <chr>                           <dbl>     <dbl>     <dbl>    <dbl>
##  1 (Intercept)                   5.25    2.72           1.93 5.40e- 2
##  2 dep_time                     -0.00167 0.0000141   -118.   0       
##  3 air_time                     -0.0438  0.000561     -78.0  0       
##  4 distance                      0.00615 0.00150        4.10 4.09e- 5
##  5 date_USChristmasDay           1.14    0.171          6.65 2.86e-11
##  6 date_USColumbusDay            0.627   0.169          3.72 2.03e- 4
##  7 date_USCPulaskisBirthday      0.702   0.133          5.29 1.25e- 7
##  8 date_USDecorationMemorialDay  0.363   0.117          3.11 1.86e- 3
##  9 date_USElectionDay            0.695   0.177          3.92 8.87e- 5
## 10 date_USGoodFriday             1.15    0.156          7.39 1.45e-13
## #  with 148 more rows
…
Our goal was to predict whether a plane arrives more than 30 minutes late. We have just:

Built the model (lr_mod),

Created a preprocessing recipe (flights_rec),

Bundled the model and recipe (flights_wflow), and

Trained our workflow using a single call to fit().

The next step is to use the trained workflow (flights_fit) to predict with the unseen test data, which we will do with a single call to predict(). The predict() method applies the recipe to the new data, then passes them to the fitted model.

predict(flights_fit, test_data)

## # A tibble: 81,455 x 1
##    .pred_class
##    <fct>      
##  1 on_time    
##  2 on_time    
##  3 on_time    
##  4 on_time    
##  5 on_time    
##  6 on_time    
##  7 on_time    
##  8 on_time    
##  9 on_time    
## 10 on_time    
## #  with 81,445 more rows

Because our outcome variable here is a factor, the output from predict() returns the predicted class: late versus on_time. But, lets say we want the predicted class probabilities for each flight instead. To return those, we can specify type = prob when we use predict(). Well also bind the output with some variables from the test data and save them together:

flights_pred <- 
  predict(flights_fit, test_data, type = "prob") %>% 
  bind_cols(test_data %>% select(arr_delay, time_hour, flight)) 

# The data look like: 
flights_pred

## # A tibble: 81,455 x 5
##    .pred_late .pred_on_time arr_delay time_hour           flight
##         <dbl>         <dbl> <fct>     <dttm>               <int>
##  1     0.0183         0.982 on_time   2013-01-01 06:00:00    461
##  2     0.0426         0.957 on_time   2013-01-01 06:00:00   5708
##  3     0.0413         0.959 on_time   2013-01-01 06:00:00     71
##  4     0.0253         0.975 on_time   2013-01-01 06:00:00    194
##  5     0.0306         0.969 on_time   2013-01-01 06:00:00   1743
##  6     0.0236         0.976 on_time   2013-01-01 06:00:00   1077
##  7     0.0119         0.988 on_time   2013-01-01 06:00:00    709
##  8     0.137          0.863 on_time   2013-01-01 06:00:00    245
##  9     0.0526         0.947 on_time   2013-01-01 06:00:00   4599
## 10     0.0246         0.975 on_time   2013-01-01 06:00:00   1019
## #  with 81,445 more rows
…
